-------------------------------------------------------------------------------
Test set: com.epam.upskill.week3.SortingAppTest
-------------------------------------------------------------------------------
Tests run: 1, Failures: 0, Errors: 0, Skipped: 0, Time elapsed: 0.093 sec
